…
top_goodwine <- goodwine %>%
  group_by(country, variety) %>%
  summarise(Total_Review = n()) %>%
  arrange(desc(Total_Review))

top_goodwine
```

    ## # A tibble: 443 x 3
    ## # Groups:   country [26]
    ##     country                  variety Total_Review
    ##      <fctr>                   <fctr>        <int>
    ##  1 Portugal           Portuguese Red          284
    ##  2       US                 Riesling          239
    ##  3       US          Sauvignon Blanc          235
    ##  4       US               Chardonnay          197
    ##  5  Austria   "Gr\x92_ner Veltliner"          185
    ##  6   France Bordeaux-style Red Blend          168
    ##  7  Germany                 Riesling          151
    ##  8       US               Pinot Gris          148
    ##  9   France            "Ros\x92\xa9"          137
    ## 10       US                Zinfandel          110
    ## # ... with 433 more rows
…
